Blog - College Majors Dataset Exploratory Analysis
…
recent_grads <- read_csv("https://raw.githubusercontent.com/rfordatascience/tidytuesday/master/data/2018/2018-10-16/recent-grads.csv")

Rows: 173 Columns: 21
── Column specification ────────────────────────────────────────────────────────
Delimiter: ","
chr  (2): Major, Major_category
dbl (19): Rank, Major_code, Total, Men, Women, ShareWomen, Sample_size, Empl...

ℹ Use `spec()` to retrieve the full column specification for this data.
ℹ Specify the column types or set `show_col_types = FALSE` to quiet this message.

recent_grads

# A tibble: 173 × 21
    Rank Major_code Major            Total   Men Women Major_category ShareWomen
   <dbl>      <dbl> <chr>            <dbl> <dbl> <dbl> <chr>               <dbl>
 1     1       2419 PETROLEUM ENGIN…  2339  2057   282 Engineering         0.121
 2     2       2416 MINING AND MINE…   756   679    77 Engineering         0.102
 3     3       2415 METALLURGICAL E…   856   725   131 Engineering         0.153
 4     4       2417 NAVAL ARCHITECT…  1258  1123   135 Engineering         0.107
 5     5       2405 CHEMICAL ENGINE… 32260 21239 11021 Engineering         0.342
 6     6       2418 NUCLEAR ENGINEE…  2573  2200   373 Engineering         0.145
 7     7       6202 ACTUARIAL SCIEN…  3777  2110  1667 Business            0.441
 8     8       5001 ASTRONOMY AND A…  1792   832   960 Physical Scie…      0.536
 9     9       2414 MECHANICAL ENGI… 91227 80320 10907 Engineering         0.120
10    10       2408 ELECTRICAL ENGI… 81527 65511 16016 Engineering         0.196
# … with 163 more rows, and 13 more variables: Sample_size <dbl>,
#   Employed <dbl>, Full_time <dbl>, Part_time <dbl>,
#   Full_time_year_round <dbl>, Unemployed <dbl>, Unemployment_rate <dbl>,
#   Median <dbl>, P25th <dbl>, P75th <dbl>, College_jobs <dbl>,
#   Non_college_jobs <dbl>, Low_wage_jobs <dbl>
…
